<svg width="14" height="14" viewBox="0 0 14 14" fill="none" xmlns="http://www.w3.org/2000/svg">
<path d="M3.76035 12.8278C4.74199 13.3746 5.8503 13.6666 7 13.6666C10.6819 13.6666 13.6667 10.6819 13.6667 6.99998C13.6667 3.31808 10.6819 0.333313 7 0.333313C3.31811 0.333313 0.333338 3.31808 0.333338 6.99998C0.333338 8.14969 0.625349 9.25799 1.17217 10.2396L0.333338 13.6666L3.76035 12.8278Z" fill="#042261"/>
</svg>
